Harvesting Ashtanga Yoga Teacher Data
…
# Bind everything into a final data frame
df2 <- bind_rows(results)
print(df2)

# A tibble: 110 × 8
   region          name  authorization summary_address phone email web   address
   <chr>           <chr> <chr>         <chr>           <chr> <chr> <chr> <chr>  
 1 CHINA - BEIJING Jaja… authorized l… ""              <NA>  jaja… www.… WEB: w…
 2 CHINA - BEIJING Li p… authorized l… "(2018)"        ： 15… <NA>  <NA>  : 1106…
 3 CHINA - BEIJING Guan… authorized l… "(2018)"        <NA>  <NA>  <NA>  <NA>   
 4 CHINA - BEIJING He h… authorized l… "(2018)"        numb… <NA>  <NA>  : Room…
 5 CHINA - BEIJING Marg… authorized l… ""              <NA>  <NA>  <NA>  : Shan…
 6 CHINA - BEIJING Lai … authorized l… "(2022)"        numb… <NA>  <NA>  : Hung…
 7 CHINA - BEIJING Aman… authorized l… "The Oriental … : +8… aman… http… : The …
 8 CHINA - BEIJING Clay… authorized l… ""              <NA>  shiv… www.… : 16/f…
 9 CHINA - BEIJING Conn… authorized l… "Pure Yoga, KO… : +8… conn… www.… : 9/f,…
10 CHINA - BEIJING Deva… authorized l… ""              : +8… deva… <NA>  : Hong…
# ℹ 100 more rows
…
# Bind everything into a final data frame
df3 <- bind_rows(results)
print(df3)

# A tibble: 34 × 8
   region name           authorization summary_address phone email web   address
   <chr>  <chr>          <chr>         <chr>           <chr> <chr> <chr> <chr>  
 1 ""     Carlos Gullo   <NA>          "Amor e Iguald… : +5… <NA>  <NA>  : Cach…
 2 ""     Clarisa García authorized l… ", Galpón de A… : +5… <NA>  <NA>  : Here…
 3 ""     Daiana Amedeo  authorized l… ", Buenos Aire… : +5… <NA>  <NA>  <NA>   
 4 ""     Maia Glikstein authorized l… ", Niyāma Asht… : +5… <NA>  <NA>  <NA>   
 5 ""     Maria Di Masso authorized l… "Ashtanga Yoga… <NA>  asth… www.… : Salt…
 6 ""     Pablo Pirillo  authorized l… "Ashtanga Yoga… : +5… asht… www.… : Pale…
 7 ""     Patricia Abal… authorized l… "(2018)"        : +5… <NA>  <NA>  : Rami…
 8 ""     Abhaya Kaufman authorized l… ""              : +1… chez… <NA>  : Braz…
 9 ""     Claudia Rathm… authorized l… "FLORIANÓPOLIS" <NA>  clau… <NA>  : Flor…
10 ""     Daniela Meira  <NA>          "Authorized le… <NA>  <NA>  www.… : A av…
# ℹ 24 more rows
…
# Bind everything into a final data frame
df4 <- bind_rows(results)
print(df4)

# A tibble: 249 × 8
   region  name          authorization summary_address phone email web   address
   <chr>   <chr>         <chr>         <chr>           <chr> <chr> <chr> <chr>  
 1 AUSTRIA Clemens Kitt… authorized l… Yoga Plus, VIE… : 00… clem… www.… PHONE …
 2 AUSTRIA Grace Tai Yi… authorized l… VIENNA          <NA>  grac… <NA>  : Vien…
 3 AUSTRIA Horst Rinner… authorized l… Pure Yoga - As… : +4… info… www.… : Einw…
 4 AUSTRIA Maria Türke   authorized l… Ganesha Yogaze… <NA>  <NA>  <NA>  <NA>   
 5 AUSTRIA Mauricio Vic… authorized l… VIENNA          <NA>  maur… www.… : Vien…
 6 AUSTRIA Anne Pinette… authorized l… Ashtanga Yoga … : +3… anne… www.… : Rue …
 7 AUSTRIA Damien Meado… authorized l… Ashtanga Yoga … <NA>  <NA>  www.… : Rue …
 8 AUSTRIA Lot Keymeulen authorized l… Badhitree Yoga… : +3… lot@… www.… : Gont…
 9 AUSTRIA Lynne Pinette authorized l… BRUSSELS        : +3… lynn… <NA>  : Aven…
10 AUSTRIA Sittibancha … authorized l… Badhitree Yoga… : +3… sitt… www.… : Gont…
# ℹ 239 more rows
…
# Bind everything into a final data frame
df5 <- bind_rows(results)
print(df5)

# A tibble: 40 × 8
   region    name        authorization summary_address phone email web   address
   <chr>     <chr>       <chr>         <chr>           <chr> <chr> <chr> <chr>  
 1 AUSTRALIA Santina Gi… authorized l… Insan Yoga, QL… : 04… sgia… www.… PHONE:…
 2 AUSTRALIA Angelina (… authorized l… SYDNEY          <NA>  yogi… <NA>  : Sydn…
 3 AUSTRALIA Ashley von… authorized l… SYDNEY          <NA>  ashl… <NA>  : Sydn…
 4 AUSTRALIA Christian … authorized l… Centre Of Bala… : + … info… www.… : 11, …
 5 AUSTRALIA Dan Fantho… authorized l… Ashtanga Yoga … : +6… info… www.… : Leve…
 6 AUSTRALIA Dena Kings… <NA>          Centre of Bala… <NA>  cent… www.… : P.O.…
 7 AUSTRALIA Eileen Hall <NA>          Ashtanga YogaM… <NA>  <NA>  www.… : Sydn…
 8 AUSTRALIA Fiona Pull… authorized l… Ashtanga Yoga … : (+… fion… www.… : 405 …
 9 AUSTRALIA Frances Li… authorized l… BONDI BEACH     <NA>  fran… asht… : 129 …
10 AUSTRALIA Gabriel St… authorized l… Yoga Village, … : +6… gabr… www.… : 20 D…
# ℹ 30 more rows
…
